^C:\USERS\משתמש\DESKTOP\MAGSHIMIM\עקרונות\ARADEZRAHW\DEBUGWORKSHOP\SHAPES\DEBUG\SHAPE.OBJ|C:\USERS\משתמש\DESKTOP\MAGSHIMIM\עקרונות\ARADEZRAHW\DEBUGWORKSHOP\SHAPES\DEBUG\SHAPES.OBJ|C:\USERS\משתמש\DESKTOP\MAGSHIMIM\עקרונות\ARADEZRAHW\DEBUGWORKSHOP\SHAPES\DEBUG\TRIANGLE.OBJ
/OUT:"C:\USERS\משתמש\DESKTOP\MAGSHIMIM\עקרונות\ARADEZRAHW\DEBUGWORKSHOP\DEBUG\SHAPES.EXE" /INCREMENTAL /NOLOGO KERNEL32.LIB USER32.LIB GDI32.LIB WINSPOOL.LIB COMDLG32.LIB ADVAPI32.LIB SHELL32.LIB OLE32.LIB OLEAUT32.LIB UUID.LIB ODBC32.LIB ODBCCP32.LIB /MANIFEST /MANIFESTUAC:"level='asInvoker' uiAccess='false'" /manifest:embed /DEBUG:FASTLINK /PDB:"C:\USERS\משתמש\DESKTOP\MAGSHIMIM\עקרונות\ARADEZRAHW\DEBUGWORKSHOP\DEBUG\SHAPES.PDB" /SUBSYSTEM:CONSOLE /TLBID:1 /DYNAMICBASE /NXCOMPAT /IMPLIB:"C:\USERS\משתמש\DESKTOP\MAGSHIMIM\עקרונות\ARADEZRAHW\DEBUGWORKSHOP\DEBUG\SHAPES.LIB" /MACHINE:X86 DEBUG\SHAPE.OBJ
DEBUG\SHAPES.OBJ
DEBUG\TRIANGLE.OBJ
