^C:\USERS\משתמש\DESKTOP\MAGSHIMIM\עקרונות\ARADEZRAHW\DEBUGWORKSHOP\LOOPAGAIN\LOOPAGAIN.CPP
C:\USERS\משתמש\DESKTOP\MAGSHIMIM\עקרונות\ARADEZRAHW\DEBUGWORKSHOP\LOOPAGAIN\DEBUG\VC142.PDB
C:\USERS\משתמש\DESKTOP\MAGSHIMIM\עקרונות\ARADEZRAHW\DEBUGWORKSHOP\LOOPAGAIN\DEBUG\VC142.IDB
C:\USERS\משתמש\DESKTOP\MAGSHIMIM\עקרונות\ARADEZRAHW\DEBUGWORKSHOP\LOOPAGAIN\DEBUG\LOOPAGAIN.OBJ
