^C:\USERS\משתמש\DESKTOP\MAGSHIMIM\עקרונות\ARADEZRAHW\DEBUGWORKSHOP\LOOPAGAIN\DEBUG\LOOPAGAIN.OBJ
C:\USERS\משתמש\DESKTOP\MAGSHIMIM\עקרונות\ARADEZRAHW\DEBUGWORKSHOP\DEBUG\LOOPAGAIN.EXE
C:\USERS\משתמש\DESKTOP\MAGSHIMIM\עקרונות\ARADEZRAHW\DEBUGWORKSHOP\DEBUG\LOOPAGAIN.ILK
C:\USERS\משתמש\DESKTOP\MAGSHIMIM\עקרונות\ARADEZRAHW\DEBUGWORKSHOP\DEBUG\LOOPAGAIN.PDB
